Quality assessment of drug perturbation RNAseq data (batch2 untrimmed)
…
Summarise detected genes

sumCountTab <- lapply(overPat, function(n) {
  subOld <- ddsOld[,n]
  subNew <- ddsNew[,n]
  geneOld <- rownames(subOld)[rowSums(assay(subOld)) > 0]
  geneNew <- rownames(subNew)[rowSums(assay(subNew)) > 0]
  tibble(patID = n,
         onlyNew = length(setdiff(geneNew, geneOld)),
         onlyOld = length(setdiff(geneOld, geneNew)),
         both = length(intersect(geneNew, geneOld)))
}) %>% bind_rows()
sumCountTab

# A tibble: 53 × 4
   patID onlyNew onlyOld  both
   <chr>   <int>   <int> <int>
 1 P0070     310    3688 13838
 2 P0016     618    3770 14787
 3 P0734     357    3674 14473
 4 P0031     448    3574 14944
 5 P0053     501    3762 14433
 6 P0100     489    3381 14771
 7 P0060     534    3484 14671
 8 P0995     311    4548 14504
 9 P0781     229    4486 14780
10 P0603     383    3808 14603
# … with 43 more rows
…
